{
	"info": {
		"_postman_id": "3e43c1b4-291f-4267-858a-37052a481010",
		"name": "e-commerce",
		"schema": "https://schema.getpostman.com/json/collection/v2.1.0/collection.json",
		"_exporter_id": "27291849"
	},
	"item": [
		{
			"name": "User",
			"item": [
				{
					"name": "registerUser",
					"request": {
						"method": "POST",
						"header": [],
						"body": {
							"mode": "raw",
							"raw": "{\r\n    \"firstName\" : \"\",\r\n    \"lastName\" : \"\",\r\n    \"email\" : \"\",\r\n    \"password\" : \"\"\r\n}",
							"options": {
								"raw": {
									"language": "json"
								}
							}
						},
						"url": {
							"raw": "https://capstone-2-1jj6.onrender.com/users/register",
							"protocol": "https",
							"host": [
								"capstone-2-1jj6",
								"onrender",
								"com"
							],
							"path": [
								"users",
								"register"
							]
						}
					},
					"response": []
				},
				{
					"name": "loginUser",
					"request": {
						"method": "POST",
						"header": [],
						"body": {
							"mode": "raw",
							"raw": "{\r\n    \"email\" : \"jules@mail.com\",\r\n    \"password\" : \"jules123\"\r\n}",
							"options": {
								"raw": {
									"language": "json"
								}
							}
						},
						"url": {
							"raw": "https://capstone-2-1jj6.onrender.com/users/login",
							"protocol": "https",
							"host": [
								"capstone-2-1jj6",
								"onrender",
								"com"
							],
							"path": [
								"users",
								"login"
							]
						}
					},
					"response": []
				},
				{
					"name": "getUserProfile",
					"protocolProfileBehavior": {
						"disableBodyPruning": true
					},
					"request": {
						"auth": {
							"type": "bearer",
							"bearer": [
								{
									"key": "token",
									"value": "eyJhbGciOiJIUzI1NiIsInR5cCI6IkpXVCJ9.eyJpZCI6IjY0N2VkYzg1NDY1MDZkMWMyMmI2NzgxOSIsImVtYWlsIjoianVsZXNAbWFpbC5jb20iLCJpc0FkbWluIjp0cnVlLCJpYXQiOjE2ODYyMDE3MjZ9.sc3CDXYIKYKVhIPAC08fy1FoR3zZs90_TqVXatLbEWM",
									"type": "string"
								}
							]
						},
						"method": "GET",
						"header": [],
						"body": {
							"mode": "raw",
							"raw": "",
							"options": {
								"raw": {
									"language": "json"
								}
							}
						},
						"url": {
							"raw": "https://capstone-2-1jj6.onrender.com/users/profile",
							"protocol": "https",
							"host": [
								"capstone-2-1jj6",
								"onrender",
								"com"
							],
							"path": [
								"users",
								"profile"
							]
						}
					},
					"response": []
				},
				{
					"name": "getMyOrders",
					"protocolProfileBehavior": {
						"disableBodyPruning": true
					},
					"request": {
						"auth": {
							"type": "bearer",
							"bearer": [
								{
									"key": "token",
									"value": "eyJhbGciOiJIUzI1NiIsInR5cCI6IkpXVCJ9.eyJpZCI6IjY0ODEzMDhhNDM1MTgwZmY2Y2MwZWU4YiIsImVtYWlsIjoianVhbkBtYWlsLmNvbSIsImlzQWRtaW4iOmZhbHNlLCJpYXQiOjE2ODYxODk1MTF9.EwmZbsxO8xSqIL0nKJv98LOkroLaUc625xmKoap-Qe4",
									"type": "string"
								}
							]
						},
						"method": "GET",
						"header": [],
						"body": {
							"mode": "raw",
							"raw": "",
							"options": {
								"raw": {
									"language": "json"
								}
							}
						},
						"url": {
							"raw": "https://capstone-2-1jj6.onrender.com/users/myorders",
							"protocol": "https",
							"host": [
								"capstone-2-1jj6",
								"onrender",
								"com"
							],
							"path": [
								"users",
								"myorders"
							]
						}
					},
					"response": []
				},
				{
					"name": "getAllOrders",
					"protocolProfileBehavior": {
						"disableBodyPruning": true
					},
					"request": {
						"auth": {
							"type": "bearer",
							"bearer": [
								{
									"key": "token",
									"value": "eyJhbGciOiJIUzI1NiIsInR5cCI6IkpXVCJ9.eyJpZCI6IjY0ODEzMGIwNDM1MTgwZmY2Y2MwZWU5MCIsImVtYWlsIjoiYWRtaW5AbWFpbC5jb20iLCJpc0FkbWluIjp0cnVlLCJpYXQiOjE2ODYxODk3MDN9.vfzFn2yP8pJdz8Sl0vzuoGeKzaqnUjFq67G0jMeulFs",
									"type": "string"
								}
							]
						},
						"method": "GET",
						"header": [],
						"body": {
							"mode": "raw",
							"raw": "",
							"options": {
								"raw": {
									"language": "json"
								}
							}
						},
						"url": {
							"raw": "https://capstone-2-1jj6.onrender.com/users/allorders",
							"protocol": "https",
							"host": [
								"capstone-2-1jj6",
								"onrender",
								"com"
							],
							"path": [
								"users",
								"allorders"
							]
						}
					},
					"response": []
				},
				{
					"name": "setAdmin",
					"request": {
						"auth": {
							"type": "bearer",
							"bearer": [
								{
									"key": "token",
									"value": "eyJhbGciOiJIUzI1NiIsInR5cCI6IkpXVCJ9.eyJpZCI6IjY0N2VkYzg1NDY1MDZkMWMyMmI2NzgxOSIsImVtYWlsIjoianVsZXNAbWFpbC5jb20iLCJpc0FkbWluIjp0cnVlLCJpYXQiOjE2ODYxODg1Mjd9.FZH5rI2a07TI0KVQfFb7uuWmuw4-H69CPm3LJPP6iCk",
									"type": "string"
								}
							]
						},
						"method": "PATCH",
						"header": [],
						"body": {
							"mode": "raw",
							"raw": "{\r\n    \"email\" : \"\"\r\n}",
							"options": {
								"raw": {
									"language": "json"
								}
							}
						},
						"url": {
							"raw": "https://capstone-2-1jj6.onrender.com/users/admin",
							"protocol": "https",
							"host": [
								"capstone-2-1jj6",
								"onrender",
								"com"
							],
							"path": [
								"users",
								"admin"
							]
						}
					},
					"response": []
				}
			]
		},
		{
			"name": "Product",
			"item": [
				{
					"name": "createProduct",
					"request": {
						"auth": {
							"type": "bearer",
							"bearer": [
								{
									"key": "token",
									"value": "eyJhbGciOiJIUzI1NiIsInR5cCI6IkpXVCJ9.eyJpZCI6IjY0ODEzMGIwNDM1MTgwZmY2Y2MwZWU5MCIsImVtYWlsIjoiYWRtaW5AbWFpbC5jb20iLCJpc0FkbWluIjp0cnVlLCJpYXQiOjE2ODYxODk3MDN9.vfzFn2yP8pJdz8Sl0vzuoGeKzaqnUjFq67G0jMeulFs",
									"type": "string"
								}
							]
						},
						"method": "POST",
						"header": [],
						"body": {
							"mode": "raw",
							"raw": "{\r\n    \"name\" : \"\",\r\n    \"description\" : \"\",\r\n    \"price\" : \r\n}",
							"options": {
								"raw": {
									"language": "json"
								}
							}
						},
						"url": {
							"raw": "https://capstone-2-1jj6.onrender.com/products/create",
							"protocol": "https",
							"host": [
								"capstone-2-1jj6",
								"onrender",
								"com"
							],
							"path": [
								"products",
								"create"
							]
						}
					},
					"response": []
				},
				{
					"name": "getAllProducts",
					"protocolProfileBehavior": {
						"disableBodyPruning": true
					},
					"request": {
						"auth": {
							"type": "bearer",
							"bearer": [
								{
									"key": "token",
									"value": "eyJhbGciOiJIUzI1NiIsInR5cCI6IkpXVCJ9.eyJpZCI6IjY0ODEzMGIwNDM1MTgwZmY2Y2MwZWU5MCIsImVtYWlsIjoiYWRtaW5AbWFpbC5jb20iLCJpc0FkbWluIjp0cnVlLCJpYXQiOjE2ODYxODk3MDN9.vfzFn2yP8pJdz8Sl0vzuoGeKzaqnUjFq67G0jMeulFs",
									"type": "string"
								}
							]
						},
						"method": "GET",
						"header": [],
						"body": {
							"mode": "raw",
							"raw": "",
							"options": {
								"raw": {
									"language": "json"
								}
							}
						},
						"url": {
							"raw": "https://capstone-2-1jj6.onrender.com/products/all",
							"protocol": "https",
							"host": [
								"capstone-2-1jj6",
								"onrender",
								"com"
							],
							"path": [
								"products",
								"all"
							]
						}
					},
					"response": []
				},
				{
					"name": "getAllActiveProducts",
					"protocolProfileBehavior": {
						"disableBodyPruning": true
					},
					"request": {
						"auth": {
							"type": "bearer",
							"bearer": [
								{
									"key": "token",
									"value": "eyJhbGciOiJIUzI1NiIsInR5cCI6IkpXVCJ9.eyJpZCI6IjY0ODEzMGIwNDM1MTgwZmY2Y2MwZWU5MCIsImVtYWlsIjoiYWRtaW5AbWFpbC5jb20iLCJpc0FkbWluIjp0cnVlLCJpYXQiOjE2ODYxODk3MDN9.vfzFn2yP8pJdz8Sl0vzuoGeKzaqnUjFq67G0jMeulFs",
									"type": "string"
								}
							]
						},
						"method": "GET",
						"header": [],
						"body": {
							"mode": "raw",
							"raw": "",
							"options": {
								"raw": {
									"language": "json"
								}
							}
						},
						"url": {
							"raw": "https://capstone-2-1jj6.onrender.com/products/active",
							"protocol": "https",
							"host": [
								"capstone-2-1jj6",
								"onrender",
								"com"
							],
							"path": [
								"products",
								"active"
							]
						}
					},
					"response": []
				},
				{
					"name": "getSpecificProduct",
					"protocolProfileBehavior": {
						"disableBodyPruning": true
					},
					"request": {
						"auth": {
							"type": "bearer",
							"bearer": [
								{
									"key": "token",
									"value": "eyJhbGciOiJIUzI1NiIsInR5cCI6IkpXVCJ9.eyJpZCI6IjY0ODEzMGIwNDM1MTgwZmY2Y2MwZWU5MCIsImVtYWlsIjoiYWRtaW5AbWFpbC5jb20iLCJpc0FkbWluIjp0cnVlLCJpYXQiOjE2ODYxODk3MDN9.vfzFn2yP8pJdz8Sl0vzuoGeKzaqnUjFq67G0jMeulFs",
									"type": "string"
								}
							]
						},
						"method": "GET",
						"header": [],
						"body": {
							"mode": "raw",
							"raw": "",
							"options": {
								"raw": {
									"language": "json"
								}
							}
						},
						"url": {
							"raw": "https://capstone-2-1jj6.onrender.com/products/647f28401124a0c4b665136e",
							"protocol": "https",
							"host": [
								"capstone-2-1jj6",
								"onrender",
								"com"
							],
							"path": [
								"products",
								"647f28401124a0c4b665136e"
							]
						}
					},
					"response": []
				},
				{
					"name": "updateSpecificProduct",
					"request": {
						"auth": {
							"type": "bearer",
							"bearer": [
								{
									"key": "token",
									"value": "eyJhbGciOiJIUzI1NiIsInR5cCI6IkpXVCJ9.eyJpZCI6IjY0ODEzMGIwNDM1MTgwZmY2Y2MwZWU5MCIsImVtYWlsIjoiYWRtaW5AbWFpbC5jb20iLCJpc0FkbWluIjp0cnVlLCJpYXQiOjE2ODYxODk3MDN9.vfzFn2yP8pJdz8Sl0vzuoGeKzaqnUjFq67G0jMeulFs",
									"type": "string"
								}
							]
						},
						"method": "PUT",
						"header": [],
						"body": {
							"mode": "raw",
							"raw": "{\r\n    \"name\" : \"test2\",\r\n    \"description\" : \"test2\",\r\n    \"price\" : 999\r\n}",
							"options": {
								"raw": {
									"language": "json"
								}
							}
						},
						"url": {
							"raw": "https://capstone-2-1jj6.onrender.com/products/647f28401124a0c4b665136e/update",
							"protocol": "https",
							"host": [
								"capstone-2-1jj6",
								"onrender",
								"com"
							],
							"path": [
								"products",
								"647f28401124a0c4b665136e",
								"update"
							]
						}
					},
					"response": []
				},
				{
					"name": "archiveProduct",
					"request": {
						"auth": {
							"type": "bearer",
							"bearer": [
								{
									"key": "token",
									"value": "eyJhbGciOiJIUzI1NiIsInR5cCI6IkpXVCJ9.eyJpZCI6IjY0ODEzMGIwNDM1MTgwZmY2Y2MwZWU5MCIsImVtYWlsIjoiYWRtaW5AbWFpbC5jb20iLCJpc0FkbWluIjp0cnVlLCJpYXQiOjE2ODYxODk3MDN9.vfzFn2yP8pJdz8Sl0vzuoGeKzaqnUjFq67G0jMeulFs",
									"type": "string"
								}
							]
						},
						"method": "PATCH",
						"header": [],
						"body": {
							"mode": "raw",
							"raw": "",
							"options": {
								"raw": {
									"language": "json"
								}
							}
						},
						"url": {
							"raw": "https://capstone-2-1jj6.onrender.com/products/647f28401124a0c4b665136e/archive",
							"protocol": "https",
							"host": [
								"capstone-2-1jj6",
								"onrender",
								"com"
							],
							"path": [
								"products",
								"647f28401124a0c4b665136e",
								"archive"
							]
						}
					},
					"response": []
				},
				{
					"name": "activateProduct",
					"request": {
						"auth": {
							"type": "bearer",
							"bearer": [
								{
									"key": "token",
									"value": "eyJhbGciOiJIUzI1NiIsInR5cCI6IkpXVCJ9.eyJpZCI6IjY0ODEzMGIwNDM1MTgwZmY2Y2MwZWU5MCIsImVtYWlsIjoiYWRtaW5AbWFpbC5jb20iLCJpc0FkbWluIjp0cnVlLCJpYXQiOjE2ODYxODk3MDN9.vfzFn2yP8pJdz8Sl0vzuoGeKzaqnUjFq67G0jMeulFs",
									"type": "string"
								}
							]
						},
						"method": "PATCH",
						"header": [],
						"body": {
							"mode": "raw",
							"raw": "",
							"options": {
								"raw": {
									"language": "json"
								}
							}
						},
						"url": {
							"raw": "https://capstone-2-1jj6.onrender.com/products/6481369a0d70e666de486c9c/activate",
							"protocol": "https",
							"host": [
								"capstone-2-1jj6",
								"onrender",
								"com"
							],
							"path": [
								"products",
								"6481369a0d70e666de486c9c",
								"activate"
							]
						}
					},
					"response": []
				},
				{
					"name": "checkoutProduct",
					"request": {
						"auth": {
							"type": "bearer",
							"bearer": [
								{
									"key": "token",
									"value": "eyJhbGciOiJIUzI1NiIsInR5cCI6IkpXVCJ9.eyJpZCI6IjY0ODEzMDhhNDM1MTgwZmY2Y2MwZWU4YiIsImVtYWlsIjoianVhbkBtYWlsLmNvbSIsImlzQWRtaW4iOmZhbHNlLCJpYXQiOjE2ODYxODk1MTF9.EwmZbsxO8xSqIL0nKJv98LOkroLaUc625xmKoap-Qe4",
									"type": "string"
								}
							]
						},
						"method": "POST",
						"header": [],
						"body": {
							"mode": "raw",
							"raw": "{\r\n    \"productId\" : \"647ef34e5534622d8274a83b\",\r\n    \"productName\" : \"Pencils\",\r\n    \"quantity\" : 3,\r\n    \"totalAmount\" : 1500\r\n}",
							"options": {
								"raw": {
									"language": "json"
								}
							}
						},
						"url": {
							"raw": "https://capstone-2-1jj6.onrender.com/users/checkout",
							"protocol": "https",
							"host": [
								"capstone-2-1jj6",
								"onrender",
								"com"
							],
							"path": [
								"users",
								"checkout"
							]
						}
					},
					"response": []
				}
			]
		}
	]
}